<?xml version="1.0" standalone="no"?>
<!DOCTYPE svg PUBLIC "-//W3C//DTD SVG 20010904//EN"
 "http://www.w3.org/TR/2001/REC-SVG-20010904/DTD/svg10.dtd">
<svg version="1.0" xmlns="http://www.w3.org/2000/svg"
 width="260.000000pt" height="260.000000pt" viewBox="0 0 260.000000 260.000000"
 preserveAspectRatio="xMidYMid meet">
<metadata>
Created by potrace 1.11, written by Peter Selinger 2001-2013
</metadata>
<g transform="translate(0.000000,260.000000) scale(0.100000,-0.100000)"
fill="#000000" stroke="none">
<path d="M599 2267 c27 -45 74 -124 105 -176 l56 -95 -22 -35 c-12 -20 -27
-47 -35 -61 -8 -14 -22 -37 -31 -52 -9 -14 -34 -56 -55 -92 l-38 -66 100 -167
c56 -91 101 -169 101 -173 0 -4 6 -12 13 -18 10 -9 41 36 142 205 72 119 142
237 156 262 14 25 45 78 69 116 24 39 43 75 43 81 0 6 -33 67 -74 135 -41 68
-78 131 -82 139 -4 8 -15 29 -25 45 l-19 30 -226 2 -227 3 49 -83z"/>
<path d="M1420 2346 c0 -6 53 -96 188 -321 110 -185 346 -581 375 -630 7 -10
22 -36 35 -57 12 -21 22 -42 22 -47 0 -5 -53 -99 -118 -208 -354 -592 -502
-841 -502 -844 0 -3 100 -4 222 -4 l222 0 156 260 c366 614 459 771 465 786 4
10 -37 88 -113 215 -372 623 -477 800 -481 809 -16 42 -24 43 -252 44 -120 0
-219 -1 -219 -3z"/>
<path d="M994 1603 c3 -6 17 -31 33 -55 15 -24 34 -55 43 -71 8 -15 36 -63 63
-107 l47 -80 -29 -47 c-77 -129 -447 -749 -451 -758 -17 -34 -126 -213 -138
-227 -8 -10 -11 -19 -6 -19 30 -4 437 -3 443 1 7 5 57 85 92 146 9 17 37 64
61 105 171 283 448 749 461 774 15 31 15 31 -81 190 l-97 160 -223 0 c-168 0
-221 -3 -218 -12z"/>
<path d="M343 1298 c-6 -7 -34 -55 -64 -106 -30 -51 -61 -105 -70 -120 -9 -15
-30 -51 -47 -79 l-31 -53 224 0 c124 0 225 2 225 5 0 3 -42 76 -94 163 -51 86
-99 167 -105 180 -13 25 -24 28 -38 10z"/>
</g>
</svg>
